<define-tag pagetitle>DSA-5002-1 containerd</define-tag>
<define-tag report_date>2021-11-06</define-tag>
<define-tag secrefs>CVE-2021-41103</define-tag>
<define-tag packages>containerd</define-tag>
<define-tag isvulnerable>yes</define-tag>
<define-tag fixed>yes</define-tag>
<define-tag fixed-section>no</define-tag>

#use wml::debian::security



</dl>
