<define-tag pagetitle>DLA-2729-1 asterisk</define-tag>
<define-tag report_date>2021-08-04</define-tag>
<define-tag secrefs>CVE-2021-32558</define-tag>
<define-tag packages>asterisk</define-tag>
<define-tag isvulnerable>yes</define-tag>
<define-tag fixed>yes</define-tag>
<define-tag fixed-section>no</define-tag>

#use wml::debian::security
