<define-tag pagetitle>DLA-832-1 bitlbee</define-tag>
<define-tag report_date>2017-2-23</define-tag>
<define-tag secrefs>CVE-2016-10188 CVE-2016-10189 CVE-2017-5668</define-tag>
<define-tag packages>bitlbee</define-tag>
<define-tag isvulnerable>yes</define-tag>
<define-tag fixed>yes</define-tag>
<define-tag fixed-section>no</define-tag>

#use wml::debian::security

