<define-tag pagetitle>DLA-1163-1 apr-util</define-tag>
<define-tag report_date>2017-11-6</define-tag>
<define-tag secrefs>CVE-2017-12618 Bug##879996</define-tag>
<define-tag packages>apr-util</define-tag>
<define-tag isvulnerable>yes</define-tag>
<define-tag fixed>yes</define-tag>
<define-tag fixed-section>no</define-tag>

#use wml::debian::security

