<define-tag pagetitle>DLA-2337-1 python2.7</define-tag>
<define-tag report_date>2020-8-22</define-tag>
<define-tag secrefs>CVE-2018-20852 CVE-2019-5010 CVE-2019-9636 CVE-2019-9740 CVE-2019-9947 CVE-2019-9948 CVE-2019-10160 CVE-2019-16056 CVE-2019-20907</define-tag>
<define-tag packages>python2.7</define-tag>
<define-tag isvulnerable>yes</define-tag>
<define-tag fixed>yes</define-tag>
<define-tag fixed-section>no</define-tag>

#use wml::debian::security

