<define-tag pagetitle>DLA-1303-1 python-django</define-tag>
<define-tag report_date>2018-3-8</define-tag>
<define-tag secrefs>CVE-2018-7536 CVE-2018-7537</define-tag>
<define-tag packages>python-django</define-tag>
<define-tag isvulnerable>yes</define-tag>
<define-tag fixed>yes</define-tag>
<define-tag fixed-section>no</define-tag>

#use wml::debian::security

