<define-tag pagetitle>DSA-4525-1 ibus</define-tag>
<define-tag report_date>2019-9-18</define-tag>
<define-tag secrefs>CVE-2019-14822 Bug#940267</define-tag>
<define-tag packages>ibus</define-tag>
<define-tag isvulnerable>yes</define-tag>
<define-tag fixed>yes</define-tag>
<define-tag fixed-section>no</define-tag>

#use wml::debian::security



</dl>
