<define-tag pagetitle>DLA-452-1 smarty3</define-tag>
<define-tag report_date>2016-5-3</define-tag>
<define-tag secrefs>CVE-2014-8350 Bug#765920</define-tag>
<define-tag packages>smarty3</define-tag>
<define-tag isvulnerable>yes</define-tag>
<define-tag fixed>yes</define-tag>
<define-tag fixed-section>no</define-tag>

#use wml::debian::security

