<define-tag pagetitle>DLA-473-1 wpa</define-tag>
<define-tag report_date>2016-5-14</define-tag>
<define-tag secrefs>CVE-2016-4476 CVE-2016-4477 Bug#823411</define-tag>
<define-tag packages>wpa</define-tag>
<define-tag isvulnerable>yes</define-tag>
<define-tag fixed>yes</define-tag>
<define-tag fixed-section>no</define-tag>

#use wml::debian::security

